Homework 3
…
Att.Sale.DT2 %>% group_by(Material) %>% summarise(Sum_sales2 = sum(Sum_sales),Percent_sales = (sum(Sum_sales)/total.sale)*100)

## # A tibble: 21 x 3
##    Material      Sum_sales2 Percent_sales
##    <fct>              <dbl>         <dbl>
##  1 acrylic            17422         0.487
##  2 cashmere            8081         0.226
##  3 chiffonfabric     464493        13.0  
##  4 cotton            985436        27.6  
##  5 lace                8644         0.242
##  6 linen              28644         0.801
##  7 lycra              18303         0.512
##  8 microfiber         53889         1.51 
##  9 milksilk           47900         1.34 
## 10 mix               105041         2.94 
## # ... with 11 more rows
…
Att.Sale.DT2 %>% group_by(Decoration) %>% summarise(Sum_sales2 = sum(Sum_sales),Percent_sales = (sum(Sum_sales)/total.sale)*100)

## # A tibble: 24 x 3
##    Decoration Sum_sales2 Percent_sales
##    <fct>           <dbl>         <dbl>
##  1 applique       103418       2.89   
##  2 beading         72543       2.03   
##  3 bow            319707       8.95   
##  4 button          36281       1.02   
##  5 cascading         317       0.00887
##  6 crystal          9417       0.263  
##  7 draped           9715       0.272  
##  8 embroidary      61859       1.73   
##  9 feathers           98       0.00274
## 10 flowers          9665       0.270  
## # ... with 14 more rows
…
